build/tracefile.vcd
$date
     Mar 20, 2024       18:00:25
$end

$version
 SystemC 2.3.3-Accellera --- Mar 17 2022 13:55:26
$end

$timescale
     100 ms
$end

$scope module SystemC $end
$var wire    1  aaaaa  ACLK       $end
$var wire   32  aaaab  master state [31:0]  $end
$var wire   32  aaaac  slave state [31:0]  $end
$var wire    1  aaaad  ARESETn       $end
$var wire    1  aaaae  TRIGGER       $end
$var wire    8  aaaaf  TDATA [7:0]  $end
$var wire    1  aaaag  TVALID       $end
$var wire    1  aaaah  TREADY       $end
$var wire    1  aaaai  TLAST       $end
$upscope $end
$enddefinitions  $end

$comment
All initial values are dumped below at time 0 sec = 0 timescale units.
$end

$dumpvars
1aaaaa
b111111111001110 aaaab
b111111111001110 aaaac
0aaaad
0aaaae
b0 aaaaf
1aaaag
0aaaah
0aaaai
$end

#5
0aaaaa

#10
1aaaaa
1aaaad
0aaaag

#15
0aaaaa

#20
1aaaaa
0aaaad

#25
0aaaaa

#30
1aaaaa
1aaaae

#35
0aaaaa

#40
1aaaaa
0aaaae
1aaaah

#45
0aaaaa

#50
1aaaaa

#55
0aaaaa

#60
1aaaaa
1aaaag
0aaaah

#65
0aaaaa

#70
1aaaaa
1aaaah

#75
0aaaaa

#80
1aaaaa
0aaaag

#85
0aaaaa

#90
1aaaaa

#95
0aaaaa

#100
1aaaaa
1aaaad
0aaaah

#105
0aaaaa

#110
1aaaaa
0aaaad

#115
0aaaaa

#120
1aaaaa
1aaaae

#125
0aaaaa

#130
1aaaaa
0aaaae
1aaaah

#135
0aaaaa

#140
1aaaaa

#145
0aaaaa

#150
1aaaaa
1aaaag
0aaaah

#155
0aaaaa

#160
1aaaaa
1aaaah

#165
0aaaaa

#170
1aaaaa
0aaaag

#175
0aaaaa

#180
1aaaaa

#185
0aaaaa

#190
1aaaaa
1aaaad
0aaaah

#195
0aaaaa

#200
1aaaaa
0aaaad

#205
0aaaaa

#210
1aaaaa
1aaaae

#215
0aaaaa

#220
1aaaaa
0aaaae
1aaaah

#225
0aaaaa

#230
1aaaaa

#235
0aaaaa

#240
1aaaaa
1aaaag
0aaaah

#245
0aaaaa

#250
1aaaaa
1aaaah

#255
0aaaaa

#260
1aaaaa
0aaaag

#265
0aaaaa

#270
1aaaaa

#275
0aaaaa

#280
1aaaaa
1aaaad
0aaaah

#285
0aaaaa

#290
1aaaaa
0aaaad

#295
0aaaaa

#300
1aaaaa
1aaaae

#305
0aaaaa

#310
1aaaaa
0aaaae
1aaaah

#315
0aaaaa

#320
1aaaaa

#325
0aaaaa

#330
1aaaaa
1aaaag
0aaaah

#335
0aaaaa

#340
1aaaaa
1aaaah

#345
0aaaaa

#350
1aaaaa
0aaaag

#355
0aaaaa

#360
1aaaaa

#365
0aaaaa

#370
1aaaaa
1aaaad
0aaaah

#375
0aaaaa

#380
1aaaaa
0aaaad

#385
0aaaaa

#390
1aaaaa
1aaaae

#395
0aaaaa

#400
1aaaaa
0aaaae
1aaaah

#405
0aaaaa

#410
1aaaaa

#415
0aaaaa

#420
1aaaaa
1aaaag
0aaaah

#425
0aaaaa

#430
1aaaaa
1aaaah

#435
0aaaaa

#440
1aaaaa
0aaaag

#445
0aaaaa

#450
1aaaaa

#455
0aaaaa

#460
1aaaaa
1aaaad
0aaaah

#465
0aaaaa

#470
1aaaaa
0aaaad

#475
0aaaaa

#480
1aaaaa
1aaaae

#485
0aaaaa

#490
1aaaaa
0aaaae
1aaaah

