build/tracefile.vcd
$date
     Mar 21, 2024       11:53:39
$end

$version
 SystemC 2.3.3-Accellera --- Mar 17 2022 13:55:26
$end

$timescale
     100 ms
$end

$scope module SystemC $end
$var wire    1  aaaaa  ACLK       $end
$var wire   32  aaaab  master state [31:0]  $end
$var wire   32  aaaac  slave state [31:0]  $end
$var wire    1  aaaad  ARESETn       $end
$var wire    1  aaaae  TRIGGER       $end
$var wire    8  aaaaf  TDATA [7:0]  $end
$var wire    1  aaaag  TVALID       $end
$var wire    1  aaaah  TREADY       $end
$var wire    1  aaaai  TLAST       $end
$upscope $end
$enddefinitions  $end

$comment
All initial values are dumped below at time 0 sec = 0 timescale units.
$end

$dumpvars
1aaaaa
b111111110001001 aaaab
b111111110001001 aaaac
0aaaad
0aaaae
b0 aaaaf
0aaaag
0aaaah
0aaaai
$end

#5
0aaaaa

#10
1aaaaa
1aaaad

#15
0aaaaa

#20
1aaaaa
0aaaad

#25
0aaaaa

#30
1aaaaa
1aaaae

#35
0aaaaa

#40
1aaaaa
0aaaae
1aaaah

#45
0aaaaa

#50
1aaaaa

#55
0aaaaa

#60
1aaaaa
1aaaag
0aaaah

#65
0aaaaa

#70
1aaaaa
1aaaah

#75
0aaaaa

#80
1aaaaa
0aaaag

#85
0aaaaa

#90
1aaaaa
b1 aaaaf
1aaaag
0aaaah

#95
0aaaaa

#100
1aaaaa
1aaaah

#105
0aaaaa

#110
1aaaaa
0aaaag

#115
0aaaaa

#120
1aaaaa
b10 aaaaf
1aaaag
0aaaah

#125
0aaaaa

#130
1aaaaa
1aaaah

#135
0aaaaa

#140
1aaaaa
0aaaag

#145
0aaaaa

#150
1aaaaa
b11 aaaaf
1aaaag
0aaaah

#155
0aaaaa

#160
1aaaaa
1aaaah

#165
0aaaaa

#170
1aaaaa
0aaaag

#175
0aaaaa

#180
1aaaaa
b100 aaaaf
1aaaag
0aaaah
1aaaai

#185
0aaaaa

#190
1aaaaa
1aaaah

#195
0aaaaa

#200
1aaaaa
0aaaag
0aaaai

#205
0aaaaa

#210
1aaaaa

#215
0aaaaa

#220
1aaaaa

#225
0aaaaa

#230
1aaaaa

#235
0aaaaa

#240
1aaaaa
1aaaad

#245
0aaaaa

#250
1aaaaa
0aaaad

#255
0aaaaa

#260
1aaaaa
1aaaae
b0 aaaaf
0aaaah

#265
0aaaaa

#270
1aaaaa
0aaaae
1aaaah

#275
0aaaaa

#280
1aaaaa

#285
0aaaaa

#290
1aaaaa
1aaaag
0aaaah

#295
0aaaaa

#300
1aaaaa
1aaaah

#305
0aaaaa

#310
1aaaaa
0aaaag

#315
0aaaaa

#320
1aaaaa
b1 aaaaf
1aaaag
0aaaah

#325
0aaaaa

#330
1aaaaa
1aaaah

#335
0aaaaa

#340
1aaaaa
0aaaag

#345
0aaaaa

#350
1aaaaa
b10 aaaaf
1aaaag
0aaaah

#355
0aaaaa

#360
1aaaaa
1aaaah

#365
0aaaaa

#370
1aaaaa
0aaaag

#375
0aaaaa

#380
1aaaaa
b11 aaaaf
1aaaag
0aaaah

#385
0aaaaa

#390
1aaaaa
1aaaah

#395
0aaaaa

#400
1aaaaa
0aaaag

#405
0aaaaa

#410
1aaaaa
b100 aaaaf
1aaaag
0aaaah
1aaaai

#415
0aaaaa

#420
1aaaaa
1aaaah

#425
0aaaaa

#430
1aaaaa
0aaaag
0aaaai

#435
0aaaaa

#440
1aaaaa

#445
0aaaaa

#450
1aaaaa

#455
0aaaaa

#460
1aaaaa

#465
0aaaaa

#470
1aaaaa
1aaaad

#475
0aaaaa

#480
1aaaaa
0aaaad

#485
0aaaaa

#490
1aaaaa
1aaaae
b0 aaaaf
0aaaah

